# File produced by Open Asset Import Library (http://www.assimp.sf.net)
# (assimp v3.1.151580502)

mtllib wallwriting.mtl

# 4 vertex positions
v  -300 0 15
v  300 0 15
v  300 387.524 14.9999
v  -300 387.524 14.9999

# 4 UV coordinates
vt 2.52249e-07 1 0
vt 0 7.94728e-08 0
vt 1 0 0
vt 1 1 0

# 1 vertex normals
vn 0 1.62921e-07 1

# Mesh 'Cube_Cube' with 2 faces
g Cube_Cube
usemtl DefaultMaterial
f  1/1/1 2/2/1 3/3/1
f  3/3/1 4/4/1 1/1/1

